…
### Exercise 1

Create `matein2` data frame that will have only puzzles that have `"mateIn2"`
in the `Themes` column.
Use the `contains` function (check its documentation first).

<details>
<summary>Solution</summary>

```
julia> matein2 = puzzles[contains.(puzzles.Themes, "mateIn2"), :]
274135×9 DataFrame
    Row │ PuzzleId  FEN                                Moves                Rating  RatingDeviation  Popularity  NbPlays  Themes                             GameUrl    ⋯
        │ String7   String                             String               Int64   Int64            Int64       Int64    String                             String     ⋯
────────┼────────────────────────────────────────────────────────────────────────────────────────────────────────────────────────────────────────────────────────────────
      1 │ 000hf     r1bqk2r/pp1nbNp1/2p1p2p/8/2BP4/1…  e8f7 e2e6 f7f8 e6f7    1560               76          88      441  mate mateIn2 middlegame short      https://li ⋯
      2 │ 001Wz     4r1k1/5ppp/r1p5/p1n1RP2/8/2P2N1P…  e8e5 d1d8 e5e8 d8e8    1128               81          87       54  backRankMate endgame mate mateIn…  https://li
      3 │ 001om     5r1k/pp4pp/5p2/1BbQp1r1/6K1/7P/1…  g4h4 c5f2 g2g3 f2g3     991               78          89      215  mate mateIn2 middlegame short      https://li
      4 │ 003Tx     2r5/pR5p/5p1k/4p3/4r3/B4nPP/PP3P…  e1e4 f3d2 b1a1 c8c1    1716               77          87      476  backRankMate endgame fork mate m…  https://li
   ⋮    │    ⋮                      ⋮                           ⋮             ⋮            ⋮             ⋮          ⋮                     ⋮                             ⋱
 274132 │ zzxQS     2R2q2/3nk1r1/p1Br1p2/1p2p3/1P3Pn…  c8f8 d6d1 e3e1 d1e1    1149               75          96     1722  mate mateIn2 middlegame short      https://li ⋯
 274133 │ zzxvB     5rk1/R1Q2ppp/5n2/4p3/1pB5/7q/1P3…  f6g4 c7f7 f8f7 a7a8    1695               74          95     4857  endgame mate mateIn2 pin sacrifi…  https://li
 274134 │ zzzRN     4r2k/1NR2Q1p/4P1n1/pp1p4/3P4/4q3…  g1h1 e3e1 f7f1 e1f1     830              108          67       31  endgame mate mateIn2 short         https://li
 274135 │ zzzco     5Q2/pp3R1P/1kpp4/4p3/2P1P3/3PP2P…  f7f2 b2c2 c1b1 e2d1    1783               75          90      763  endgame mate mateIn2 queensideAt…  https://li
                                                                                                                                         1 column and 274127 rows omitted
```
…
